{
  "transformers": [
    {
      "transformerName": "pdfmeta",
      "supportedSourceAndTargetList": [
        {"sourceMediaType": "application/pdf",		"priority": 5,		"targetMediaType": "alfresco-metadata-extract" }
      ]
    }
  ]
}
